{
  "owner": ["97422278093991936","229599068018442240"],
  "modchannel": "391765434946289664",
	"modrole": "Officers",
	"ownerid": "Idiot",
  "prefix": "!",
  "token": "Mzc5NjI2MTUzMzQzNzEzMjkx.D0ca8w.pblB7daOH_kDrSiPFXxMF8eGy_c",
  "test_token": "MzkzMDExMDkwNDk5NDM2NTU1.XZ9zlg.RLpGTFqCz29tIuDBmPkllR0h39s",
  "google_api_key": "AIzaSyDG22OW6KNsUaee_QqRJOELO8f83FI1S1M"
}
